{
  "users": {
    "user1@email,com": {
      "dog matches": {
        "Brutus": "dog",
        "Caesar": "dog"
      },
      "first name": "john",
      "last name": "doe"
    },
    "user2@email,com": {
      "dog matches": {
        "Caesar": "dog",
        "lobster": "dog"
      },
      "first name": "jane",
      "last name": "smith"
    }
  }
}
